Chapter 2 Summarizing data using R (with Lucy King) | Statistical Thinking for the 21st Century
…
    ats6_re = 8 - ats6,
    ats7_re = 8 - ats7,
    ats10_re = 8 - ats10,
    ats12_re = 8 - ats12,
    ats14_re = 8 - ats14,
    ats15_re = 8 - ats15,
    ats16_re = 8 - ats16,
    ats18_re = 8 - ats18,
    ats20_re = 8 - ats20,
    ats25_re = 8 - ats25,
    ats27_re = 8 - ats27,
    ats28_re = 8 - ats28
  ) 

## # A tibble: 141 x 46
##    ID     Year StatsBefore  ats1  ats2  ats3  ats4  ats5
##    <chr> <dbl> <chr>       <dbl> <dbl> <dbl> <dbl> <dbl>
##  1 1         3 Yes             6     1     7     2     7
##  2 2         4 No              4     5     6     5     5
##  3 3         2 No              6     5     5     5     6
##  4 4         1 Yes             3     2     7     2     7
##  5 5         2 No              7     7     2     7     5
##  6 6         3 No              4     5     4     3     4
##  7 7         4 Yes             6     5     7     3     6
##  8 8         2 Yes             5     4     7     4     6
##  9 9         2 Yes             7     2     7     5     7
## 10 10        2 Yes             5     2     5     3     5
## # … with 131 more rows, and 38 more variables: ats6 <dbl>,
## #   ats7 <dbl>, ats8 <dbl>, ats9 <dbl>, ats10 <dbl>,
## #   ats11 <dbl>, ats12 <dbl>, ats13 <dbl>, ats14 <dbl>,
## #   ats15 <dbl>, ats16 <dbl>, ats17 <dbl>, ats18 <dbl>,
## #   ats19 <dbl>, ats20 <dbl>, ats21 <dbl>, ats22 <dbl>,
## #   ats23 <dbl>, ats24 <dbl>, ats25 <dbl>, ats26 <dbl>,
## #   ats27 <dbl>, ats28 <dbl>, ats29 <dbl>, ats2_re <dbl>,
## #   ats4_re <dbl>, ats6_re <dbl>, ats7_re <dbl>,
## #   ats10_re <dbl>, ats12_re <dbl>, ats14_re <dbl>,
…
Whenever we do an operation like this, it’s good to check that it actually worked correctly. It’s easy to make mistakes in coding, which is why it’s important to check your work as well as you can.

We can quickly select a couple of the raw and recoded columns from our data and make sure things appear to have gone according to plan:

attitudeDataNoNA %>% 
  select(
    ats2,
    ats2_re,
    ats4,
    ats4_re
  )

## # A tibble: 141 x 4
##     ats2 ats2_re  ats4 ats4_re
##    <dbl>   <dbl> <dbl>   <dbl>
##  1     1       7     2       6
##  2     5       3     5       3
##  3     5       3     5       3
##  4     2       6     2       6
##  5     7       1     7       1
##  6     5       3     3       5
##  7     5       3     3       5
##  8     4       4     4       4
##  9     2       6     5       3
## 10     2       6     3       5
## # … with 131 more rows
…
It looks like responses were fairly positively overall.

We can also aggregate each participant’s responses to each question during each year of their study at Stanford to examine the distribution of mean ATS responses across people by year.

We will use the group_by() and summarize() functions to aggregate the responses.

attitudeData_agg <-
  attitudeData_long %>% 
  group_by(ID, Year) %>%
  summarize(
    mean_response = mean(response)
  )
attitudeData_agg

## # A tibble: 141 x 3
## # Groups:   ID [141]
##    ID     Year mean_response
##    <chr> <dbl>         <dbl>
##  1 1         3          6   
##  2 10        2          4.66
##  3 100       4          5.03
##  4 101       2          5.10
##  5 102       3          4.66
##  6 103       2          5.55
##  7 104       2          4.31
##  8 105       3          5.10
##  9 106       1          4.21
## 10 107       2          2.45
## # … with 131 more rows
…
